{
  "sql": {
    "projects": {
      "vaultApp": "smartapproval",
      "vaultSecret": "mysql"
    }
  },
  "logger": {
    "syslog": true,
    "level": "trace"
  },
  "mongo": {
    "projects": {
      "vaultApp": "smartapproval",
      "vaultSecret": "mongo"
    },
    "users": {
      "vaultApp": "smartapproval",
      "vaultSecret": "mongo"
    }
  },
  "server_to_server_app": "retailwatch",
  "serviceCheck": {
    "serviceCheckName":"Approval.check",
    "hostName": "smart-approval"
  }
}
