<?xml version="1.0" encoding="UTF-8" standalone="no"?>
<svg width="26px" height="26px" viewBox="0 0 26 26" version="1.1" xmlns="http://www.w3.org/2000/svg" xmlns:xlink="http://www.w3.org/1999/xlink" xmlns:sketch="http://www.bohemiancoding.com/sketch/ns">
    <!-- Generator: Sketch 3.4.4 (17249) - http://www.bohemiancoding.com/sketch -->
    <title>edited-by</title>
    <desc>Created with Sketch.</desc>
    <defs></defs>
    <g id="Page-1" stroke="none" stroke-width="1" fill="none" fill-rule="evenodd" sketch:type="MSPage">
        <g id="edited-by" sketch:type="MSArtboardGroup" fill="#AAAAAA">
            <path d="M15.9822535,14.754989 C15.5203214,12.0434808 13.093289,9.9933107 10.3257116,9.23504667 C11.5150213,8.0090766 12.1479343,6.00945743 12.1502959,4.65381321 C12.1507682,4.40413555 12.1231373,4.15335895 12.0725987,3.9052198 C12.9612747,3.45597583 13.4562693,2.67485399 13.7146301,1.44558712 C13.4730368,2.00780143 11.8699721,2.38341686 10.6190243,1.22470151 C8.49569567,-0.742609023 6.42833733,0.136757465 5.94491461,0.614573697 L5.74512192,1.00689291 C5.53966136,0.987331898 5.35521918,1.00293675 5.232179,1.06183958 C5.232179,1.06183958 2.82876275,1.7097707 3.4668713,5.85912334 C3.5627529,5.84044147 3.70681145,5.76461507 3.87779243,5.65450195 C4.09789501,6.88069181 4.6859373,8.3009533 5.61617771,9.25087131 C2.87268881,10.021883 0.476121241,12.0623825 0.0174954818,14.754989 C-0.172378417,15.8701866 1.22617037,16.6104281 2.13114149,16.9895601 C3.90660414,17.7330985 5.9345235,17.9865125 7.8663251,17.9994799 C9.8215067,18.0126671 11.8657212,17.7770558 13.6796782,17.0658261 C14.6307008,16.6926284 16.1832269,15.9345841 15.9822535,14.754989 L15.9822535,14.754989 Z M12,25.9505212 L14.7915254,25.9505212 L22.0280142,18.7719096 L19.2364888,16 L12,23.1786116 L12,25.9505212 L12,25.9505212 Z M25.1537898,15.9883957 C25.4441084,15.6997475 25.4441084,15.2303709 25.1537898,14.9420923 L23.4156,13.2164861 C23.1249091,12.927838 22.652583,12.927838 22.3622644,13.2164861 L21,14.5688084 L23.7915254,17.340718 L25.1537898,15.9883957 L25.1537898,15.9883957 Z" id="user-copy-2" sketch:type="MSShapeGroup"></path>
        </g>
    </g>
</svg>