<?xml version="1.0" encoding="UTF-8" standalone="no"?>
<svg width="26px" height="26px" viewBox="0 0 26 26" version="1.1" xmlns="http://www.w3.org/2000/svg" xmlns:xlink="http://www.w3.org/1999/xlink" xmlns:sketch="http://www.bohemiancoding.com/sketch/ns">
    <!-- Generator: Sketch 3.4.4 (17249) - http://www.bohemiancoding.com/sketch -->
    <title>edit</title>
    <desc>Created with Sketch.</desc>
    <defs></defs>
    <g id="Page-1" stroke="none" stroke-width="1" fill="none" fill-rule="evenodd" sketch:type="MSPage">
        <g id="edit" sketch:type="MSArtboardGroup" fill="#AAAAAA">
            <path d="M6.58016667,15.376875 L6.58016667,19.4241667 L10.6265273,19.4241667 L22.5654491,7.48249784 L18.5190885,3.43520622 L6.58016667,15.376875 L6.58016667,15.376875 Z M25.6843839,4.36338509 C26.1052054,3.94192713 26.1052054,3.25658575 25.6843839,2.83566742 L23.16485,0.316093475 C22.743489,-0.105364492 22.0588448,-0.105364492 21.6380233,0.316093475 L19.6633993,2.29063215 L23.7097599,6.33792377 L25.6843839,4.36338509 Z M23.1111111,13.78 L23.1111111,23.1111111 L2.88888889,23.1111111 L2.88888889,2.88888889 L12.0033333,2.88888889 L14.8922222,0 L2.88888889,0 C1.29277778,0 0,1.29277778 0,2.88888889 L0,23.1111111 C0,24.7072222 1.29277778,26 2.88888889,26 L23.1111111,26 C24.7079444,26 26,24.7072222 26,23.1111111 L26,10.8903889 L23.1111111,13.78 Z" sketch:type="MSShapeGroup"></path>
        </g>
    </g>
</svg>