<?xml version="1.0" encoding="UTF-8" standalone="no"?>
<svg width="26px" height="26px" viewBox="0 0 26 26" version="1.1" xmlns="http://www.w3.org/2000/svg" xmlns:xlink="http://www.w3.org/1999/xlink">
    <!-- Generator: Sketch 3.6.1 (26313) - http://www.bohemiancoding.com/sketch -->
    <title>erase</title>
    <desc>Created with Sketch.</desc>
    <defs></defs>
    <g id="Page-1" stroke="none" stroke-width="1" fill="none" fill-rule="evenodd">
        <g id="erase" fill="#AAAAAA">
            <path d="M8.75738227,10.7022444 L2.90901134,16.5506154 C2.50568461,16.9539421 2.50568461,17.6926744 2.90901134,18.0960012 L8.25236974,23.4393596 L25.9674185,23.0576441 L25.9674185,25.6641604 L7.33082707,25.6641604 L6.79099987,25.6641604 L6.4092844,25.2824449 L1.065926,19.9390865 C-0.355308666,18.5178519 -0.355308666,16.1287647 1.065926,14.70753 L13.70753,2.065926 C15.1287647,0.644691334 17.5178519,0.644691334 18.9390865,2.065926 L24.934074,8.06091347 C26.3553087,9.48214813 26.3553087,11.8712353 24.934074,13.29247 L14.3358396,23.4393601 L11.1010137,23.4393596 L16.2977556,18.2426177 L8.75738227,10.7022444 Z" id="Shape"></path>
        </g>
    </g>
</svg>