<?xml version="1.0" encoding="UTF-8" standalone="no"?>
<svg width="26px" height="26px" viewBox="0 0 26 26" version="1.1" xmlns="http://www.w3.org/2000/svg" xmlns:xlink="http://www.w3.org/1999/xlink" xmlns:sketch="http://www.bohemiancoding.com/sketch/ns">
    <!-- Generator: Sketch 3.4.4 (17249) - http://www.bohemiancoding.com/sketch -->
    <title>flag</title>
    <desc>Created with Sketch.</desc>
    <defs></defs>
    <g id="Page-1" stroke="none" stroke-width="1" fill="none" fill-rule="evenodd" sketch:type="MSPage">
        <g id="flag" sketch:type="MSArtboardGroup" fill="#AAAAAA">
            <path d="M7.55399855,25.2077229 L2.03678211,4.62327075 C1.88427034,4.05547354 2.21969319,3.47273429 2.79006661,3.31867679 C3.35837906,3.16719551 3.94060306,3.50467933 4.09466056,4.07350702 L9.60981603,24.6579592 C9.76335829,25.2247259 9.42690495,25.8090109 8.85910774,25.9640989 C8.28821908,26.1150649 7.70754081,25.7760354 7.55399855,25.2077229 Z M23.4327412,7.12941015 C23.1282329,5.99690719 22.8438191,4.94323632 22.541887,3.80815715 C22.2389244,2.67307797 21.9112302,1.45865145 21.5201611,0 C20.4608226,1.12941151 19.3612952,1.61116323 18.2885603,1.8801198 C17.2132493,2.15113734 16.1631851,2.18771956 15.1234258,2.17483849 C14.0836665,2.16453365 13.056273,2.09858261 12.0185746,2.08776252 C10.9777848,2.0753967 9.92565967,2.11094843 8.85189435,2.38093549 C7.77864427,2.64937682 6.68014731,3.13112853 5.62080878,4.26157053 C6.01033209,5.71970674 6.33854155,6.93413325 6.64098888,8.06921243 C6.94549719,9.20326112 7.22527385,10.2564167 7.53132788,11.3899502 C7.83686667,12.5255446 8.16198467,13.7420321 8.55305371,15.2001683 C9.61239225,14.0707568 10.7093435,13.5890051 11.7841393,13.321079 C12.8553284,13.0521224 13.9079688,13.0134792 14.9472129,13.0222384 C15.9880027,13.0335737 17.0153962,13.1015857 18.0546402,13.1154972 C19.0913081,13.1278631 20.1491009,13.0876742 21.2218357,12.8192328 C22.2935401,12.5492458 23.3915218,12.0680093 24.4503451,10.9416892 C24.0623675,9.47994633 23.7346733,8.2665503 23.4327412,7.12941015 Z" sketch:type="MSShapeGroup"></path>
        </g>
    </g>
</svg>