<?xml version="1.0" encoding="UTF-8" standalone="no"?>
<svg width="26px" height="26px" viewBox="0 0 26 26" version="1.1" xmlns="http://www.w3.org/2000/svg" xmlns:xlink="http://www.w3.org/1999/xlink" xmlns:sketch="http://www.bohemiancoding.com/sketch/ns">
    <!-- Generator: Sketch 3.4.4 (17249) - http://www.bohemiancoding.com/sketch -->
    <title>pin</title>
    <desc>Created with Sketch.</desc>
    <defs></defs>
    <g id="Page-1" stroke="none" stroke-width="1" fill="none" fill-rule="evenodd" sketch:type="MSPage">
        <g id="pin" sketch:type="MSArtboardGroup" fill="#AAAAAA">
            <path d="M20.1323948,1.29548424 C16.6120397,-1.02293954 11.8400028,-0.148779756 9.45398433,3.2718455 C7.26354116,6.38841518 7.85026701,10.5691794 10.6665511,13.001624 L4.64283237,21.667208 L3,26 L6.55947015,22.9214373 L12.6223039,14.2558533 C15.9861988,15.7381242 20.0541647,14.7499436 22.2054928,11.6713809 C24.5915112,8.28876255 23.6527499,3.61390803 20.1323948,1.29548424 L20.1323948,1.29548424 Z" sketch:type="MSShapeGroup"></path>
        </g>
    </g>
</svg>