<?xml version="1.0" encoding="UTF-8" standalone="no"?>
<svg width="26px" height="26px" viewBox="0 0 26 26" version="1.1" xmlns="http://www.w3.org/2000/svg" xmlns:xlink="http://www.w3.org/1999/xlink">
    <!-- Generator: Sketch 3.6.1 (26313) - http://www.bohemiancoding.com/sketch -->
    <title>selector</title>
    <desc>Created with Sketch.</desc>
    <defs></defs>
    <g id="Page-1" stroke="none" stroke-width="1" fill="none" fill-rule="evenodd">
        <g id="selector" fill="#AAAAAA">
            <path d="M3,0 L23,0 L23,3 L3,3 L3,0 Z M3,23 L23,23 L23,26 L3,26 L3,23 Z M0,0 L3,0 L3,26 L0,26 L0,0 Z M23,0 L26,0 L26,26 L23,26 L23,0 Z" id="Rectangle-391"></path>
        </g>
    </g>
</svg>