{
  "production": true,
  "config": {
    "baseUrl": "https://smart-int.trax-cloud.com",
    "cloud": "AWS",
    "cloudsUrls": {
      "AWS": "https://smart-int.trax-cloud.com",
      "GCP": "https://gsmart-int.trax-cloud.com"
    },
    "assetsPrefix": "/approvals",
    "xsuite": "https://services-int.traxretail.com/trax-one/"
  }
}
