{
  "production": true,
  "config": {
    "baseUrl": "https://smart-prod.trax-cloud.com",
    "cloud": "AWS",
    "cloudsUrls": {
      "AWS": "https://smart-prod.trax-cloud.com",
      "GCP": "https://gsmart-prod.trax-cloud.com"
    },
    "assetsPrefix": "/approvals",
    "xsuite": "http://10.3.3.52:9000/trax-one/"
  }
}
